Exploratory Analysis- Vaccine Data -St. Joseph County, Indiana
…
#create total_count column, counts total vaccinations at site by date
data2<- data1 %>%group_by(irms_name,vacc_date)  %>% mutate(count = n())
data2<- data2 %>% rename(total_count = count) %>% mutate(date = mdy(vacc_date)) 

#sum vaccination total by site, arrange by top vaccination site
data2 %>% group_by(irms_name) %>% distinct (irms_name, total_count) %>%
  mutate(sum(total_count))  %>% distinct(sum(total_count),irms_name) %>% arrange(desc(`sum(total_count)`))

## # A tibble: 128 x 2
## # Groups:   irms_name [128]
##    irms_name                                `sum(total_count)`
##    <chr>                                                 <int>
##  1 ST JOSEPH COUNTY HEALTH DEPARTMENT                    42555
##  2 TRINITY HEALTH SJRMCPL/SJRMCSB                        28539
##  3 BEACON MEDICAL GROUP                                  15685
##  4 MEIJER PHARMACY                                       15240
##  5 HEALTHLINC COMMUNITY HEALTH CENTER                    11926
##  6 CVS PHARMACY                                           8376
##  7 UNIVERSITY OF NOTRE DAME HEALTH SERVICES               7970
##  8 SAM'S CLUB PHARMACY                                    5957
##  9 KROGER LIMITED PARTNERSHIP                             5798
## 10 WALGREENS                                              5205
## # … with 118 more rows
…
SJC Residents Only- and Fully Vaccinated

#Filter series complete and SJC residents 
SJCdata <- data2 %>% filter (pat_county=="ST. JOSEPH" & series_complete=="Y") #change pat_count "ST.JOSEPH" >> ie: "LA PORTE" --case sensitive 

#check top 5 SJC
SJCdata %>%
   group_by(irms_name) %>%
    summarise(count = n()) %>%
  arrange(desc(count))

## `summarise()` ungrouping output (override with `.groups` argument)

## # A tibble: 106 x 2
##    irms_name                          count
##    <chr>                              <int>
##  1 ST JOSEPH COUNTY HEALTH DEPARTMENT 20250
##  2 TRINITY HEALTH SJRMCPL/SJRMCSB     13175
##  3 BEACON MEDICAL GROUP                8285
##  4 HEALTHLINC COMMUNITY HEALTH CENTER  6961
##  5 MEIJER PHARMACY                     5123
##  6 CVS PHARMACY                        3547
##  7 MASS IMMUNIZATIONS                  3222
##  8 SAM'S CLUB PHARMACY                 2347
##  9 WALGREENS                           2162
## 10 KROGER LIMITED PARTNERSHIP          2013
## # … with 96 more rows
…
#Filter series complete and black SJC
SJCblack <- data2 %>% filter (pat_county=="ST. JOSEPH" & series_complete=="Y" & pat_race=="Black or African American")

#see most common institutions by race category

regroup<- SJCblack  %>% group_by(irms_name,vacc_date)  %>% mutate(count = n())

SJCblack %>%
   group_by(irms_name) %>%
    summarise(count = n()) %>%
  arrange(desc(count))

## `summarise()` ungrouping output (override with `.groups` argument)

## # A tibble: 47 x 2
##    irms_name                          count
##    <chr>                              <int>
##  1 ST JOSEPH COUNTY HEALTH DEPARTMENT  1864
##  2 HEALTHLINC COMMUNITY HEALTH CENTER   832
##  3 TRINITY HEALTH SJRMCPL/SJRMCSB       689
##  4 MASS IMMUNIZATIONS                   273
##  5 BEACON MEDICAL GROUP                 267
##  6 MEIJER PHARMACY                      207
##  7 CVS PHARMACY                         154
##  8 SAM'S CLUB PHARMACY                  150
##  9 WALGREENS                            149
## 10 ELKHART COUNTY HEALTH DEPT            93
## # … with 37 more rows
…
#filter series complete and Latino SJC
SJClatino <- data2 %>% filter (pat_county=="ST. JOSEPH" & series_complete=="Y" & pat_ethnicity_code=="Hispanic or Latino")

regroup<- SJClatino  %>% group_by(irms_name,vacc_date)  %>% mutate(count = n())

SJClatino %>%
   group_by(irms_name) %>%
    summarise(count = n()) %>%
  arrange(desc(count))

## `summarise()` ungrouping output (override with `.groups` argument)

## # A tibble: 50 x 2
##    irms_name                          count
##    <chr>                              <int>
##  1 ST JOSEPH COUNTY HEALTH DEPARTMENT  1021
##  2 HEALTHLINC COMMUNITY HEALTH CENTER   585
##  3 TRINITY HEALTH SJRMCPL/SJRMCSB       460
##  4 CVS PHARMACY                         323
##  5 BEACON MEDICAL GROUP                 261
##  6 MASS IMMUNIZATIONS                   186
##  7 MEIJER PHARMACY                      179
##  8 WALGREENS                            124
##  9 SAM'S CLUB PHARMACY                  122
## 10 ELKHART COUNTY HEALTH DEPT            54
## # … with 40 more rows
…
#Filter series complete and SJC residents- Over 65 yo
over65 <- data2 %>% filter ( series_complete=="Y" & age>65)

over65 %>%
   group_by(irms_name) %>%
    summarise(count = n()) %>%
  arrange(desc(count))

## `summarise()` ungrouping output (override with `.groups` argument)

## # A tibble: 74 x 2
##    irms_name                          count
##    <chr>                              <int>
##  1 ST JOSEPH COUNTY HEALTH DEPARTMENT 10332
##  2 TRINITY HEALTH SJRMCPL/SJRMCSB      6340
##  3 BEACON MEDICAL GROUP                3605
##  4 HEALTHLINC COMMUNITY HEALTH CENTER  3087
##  5 MEIJER PHARMACY                     1689
##  6 CVS PHARMACY                        1555
##  7 WALGREENS                           1171
##  8 ELKHART COUNTY HEALTH DEPT          1130
##  9 KROGER LIMITED PARTNERSHIP           941
## 10 HEART CITY HEALTH CENTER             786
## # … with 64 more rows
…
///// Weekly Run of Statistics

#What Counties are patients from
data1 %>%
    group_by(pat_county) %>%
    summarise(count = n()) %>%
  arrange(desc(count))

## `summarise()` ungrouping output (override with `.groups` argument)

## # A tibble: 170 x 2
##    pat_county  count
##    <chr>       <int>
##  1 ST. JOSEPH 172776
##  2 ELKHART      2861
##  3 BERRIEN      2478
##  4 LA PORTE     1837
##  5 MARSHALL     1531
##  6 <NA>         1396
##  7 CASS          852
##  8 COOK          559
##  9 PORTER        483
## 10 LAKE          353
## # … with 160 more rows
…
#Fully vaccinated SJC Residents
fullvacSJC<- data1 %>% 
  filter(series_complete=="Y" & pat_county=="ST. JOSEPH") 

#Order Most Common Zipcodes by Fully Vac SJC
fullvacSJC %>%
    group_by(pat_address_zip) %>%
    summarise(count = n()) %>%
  arrange(desc(count))

## `summarise()` ungrouping output (override with `.groups` argument)

## # A tibble: 7,302 x 2
##    pat_address_zip count
##              <int> <int>
##  1           46530 10244
##  2           46614  8314
##  3           46544  6263
##  4           46628  5644
##  5           46545  5560
##  6           46637  4158
##  7           46619  3757
##  8           46617  3113
##  9           46615  3068
## 10           46561  2813
## # … with 7,292 more rows
…
#fullvacSJC by administration institution
fullvacSJC %>%
    group_by(irms_name) %>%
    summarise(count = n()) %>%
  arrange(desc(count))

## `summarise()` ungrouping output (override with `.groups` argument)

## # A tibble: 106 x 2
##    irms_name                          count
##    <chr>                              <int>
##  1 ST JOSEPH COUNTY HEALTH DEPARTMENT 20250
##  2 TRINITY HEALTH SJRMCPL/SJRMCSB     13175
##  3 BEACON MEDICAL GROUP                8285
##  4 HEALTHLINC COMMUNITY HEALTH CENTER  6961
##  5 MEIJER PHARMACY                     5123
##  6 CVS PHARMACY                        3547
##  7 MASS IMMUNIZATIONS                  3222
##  8 SAM'S CLUB PHARMACY                 2347
##  9 WALGREENS                           2162
## 10 KROGER LIMITED PARTNERSHIP          2013
## # … with 96 more rows

#fullvacSJC what county are SJC residents getting vaccinated
fullvacSJC %>%
    group_by(facility_county) %>%
    summarise(count = n()) %>%
  arrange(desc(count))

## `summarise()` ungrouping output (override with `.groups` argument)

## # A tibble: 63 x 2
##    facility_county count
##    <chr>           <int>
##  1 ST. JOSEPH      47493
##  2 ELKHART         14086
##  3 MARSHALL         4872
##  4 MARION           3412
##  5 KOSCIUSKO        1620
##  6 LA PORTE         1008
##  7 NOBLE             473
##  8 WELLS             108
##  9 PORTER             91
## 10 LAKE               80
## # … with 53 more rows

#fullvacSJC which city are they from
fullvacSJC %>%
    group_by(pat_address_city) %>%
    summarise(count = n()) %>%
  arrange(desc(count))

## `summarise()` ungrouping output (override with `.groups` argument)

## # A tibble: 91 x 2
##    pat_address_city count
##    <chr>            <int>
##  1 SOUTH BEND       39459
##  2 MISHAWAKA        14508
##  3 GRANGER          11558
##  4 OSCEOLA           3236
##  5 NEW CARLISLE      1793
##  6 NORTH LIBERTY     1056
##  7 NOTRE DAME        1045
##  8 LAKEVILLE          780
##  9 NEEDS UPDATING     163
## 10 NORTE DAME          64
## # … with 81 more rows
#Black or African American SJC resident
bfullvac<- data1 %>% filter(pat_race=='Black or African American'& pat_county=='ST. JOSEPH' & series_complete =="Y")

#Hispanic or Latino SJC resident
hfullvac<- data1 %>% filter(pat_ethnicity_code=='Hispanic or Latino'& pat_county=='ST. JOSEPH' & series_complete =="Y")

#location of fully vaccinated Latino SJC Residents
hfullvac %>%
    group_by(irms_name) %>%
    summarise(count = n()) %>%
  arrange(desc(count))

## `summarise()` ungrouping output (override with `.groups` argument)

## # A tibble: 50 x 2
##    irms_name                          count
##    <chr>                              <int>
##  1 ST JOSEPH COUNTY HEALTH DEPARTMENT  1021
##  2 HEALTHLINC COMMUNITY HEALTH CENTER   585
##  3 TRINITY HEALTH SJRMCPL/SJRMCSB       460
##  4 CVS PHARMACY                         323
##  5 BEACON MEDICAL GROUP                 261
##  6 MASS IMMUNIZATIONS                   186
##  7 MEIJER PHARMACY                      179
##  8 WALGREENS                            124
##  9 SAM'S CLUB PHARMACY                  122
## 10 ELKHART COUNTY HEALTH DEPT            54
## # … with 40 more rows

#location of fully vaccinated Black SJC Residents
bfullvac %>%
    group_by(irms_name) %>%
    summarise(count = n()) %>%
  arrange(desc(count))

## `summarise()` ungrouping output (override with `.groups` argument)

## # A tibble: 47 x 2
##    irms_name                          count
##    <chr>                              <int>
##  1 ST JOSEPH COUNTY HEALTH DEPARTMENT  1864
##  2 HEALTHLINC COMMUNITY HEALTH CENTER   832
##  3 TRINITY HEALTH SJRMCPL/SJRMCSB       689
##  4 MASS IMMUNIZATIONS                   273
##  5 BEACON MEDICAL GROUP                 267
##  6 MEIJER PHARMACY                      207
##  7 CVS PHARMACY                         154
##  8 SAM'S CLUB PHARMACY                  150
##  9 WALGREENS                            149
## 10 ELKHART COUNTY HEALTH DEPT            93
## # … with 37 more rows
